<?xml version="1.0" encoding="iso-8859-1"?>
<!-- Generator: Adobe Illustrator 19.0.0, SVG Export Plug-In . SVG Version: 6.00 Build 0)  -->
<svg xmlns="http://www.w3.org/2000/svg" xmlns:xlink="http://www.w3.org/1999/xlink" version="1.1" id="Capa_1" x="0px" y="0px" viewBox="0 0 162.755 162.755" style="enable-background:new 0 0 162.755 162.755;" xml:space="preserve" width="70px" height="50px">
<path d="M117.875,162.755L40.54,83.883c-1.452-1.478-1.452-3.846,0.004-5.324L117.878,0l5.42,5.331  L48.586,81.232l74.717,76.206L117.875,162.755z" fill="#FFFFFF"/>
<g>
</g>
<g>
</g>
<g>
</g>
<g>
</g>
<g>
</g>
<g>
</g>
<g>
</g>
<g>
</g>
<g>
</g>
<g>
</g>
<g>
</g>
<g>
</g>
<g>
</g>
<g>
</g>
<g>
</g>
</svg>
